{
    "$help": "https://aka.ms/terminal-documentation",
    "$schema": "https://aka.ms/terminal-profiles-schema",
    "actions": [],
    "defaultProfile": "{574e775e-4f2a-5b96-ac1e-a2962a402336}",
    "keybindings": [],
    "newTabMenu": 
    [
        {
            "type": "remainingProfiles"
        }
    ],
    "profiles": 
    {
        "defaults": {},
        "list": 
        [
            {
                "background": "#012456",
                "closeOnExit": "graceful",
                "colorScheme": "Campbell Powershell",
                "cursorColor": "#FFFFFF",
                "cursorShape": "bar",
                "font": 
                {
                    "face": "Cascadia Code",
                    "size": 12
                },
                "guid": "{61c54bbd-c2c6-5271-96e7-009a87ff44bf}",
                "historySize": 9001,
                "icon": "ms-appx:///ProfileIcons/{61c54bbd-c2c6-5271-96e7-009a87ff44bf}.png",
                "name": "Windows PowerShell",
                "opacity": 50,
                "padding": "0, 0, 0, 0",
                "snapOnInput": true,
                "startingDirectory": "%USERPROFILE%",
                "useAcrylic": true
            },
            {
                "closeOnExit": "graceful",
                "colorScheme": "Campbell",
                "cursorColor": "#FFFFFF",
                "cursorShape": "bar",
                "experimental.retroTerminalEffect": false,
                "font": 
                {
                    "face": "Consolas",
                    "size": 12
                },
                "guid": "{0caa0dad-35be-5f56-a8ff-afceeeaa6101}",
                "historySize": 9001,
                "icon": "ms-appx:///ProfileIcons/{0caa0dad-35be-5f56-a8ff-afceeeaa6101}.png",
                "name": "cmd",
                "opacity": 75,
                "padding": "0, 0, 0, 0",
                "snapOnInput": true,
                "startingDirectory": "%USERPROFILE%",
                "useAcrylic": true
            },
            {
                "closeOnExit": "never",
                "colorScheme": "Vintage",
                "commandline": "Azure",
                "connectionType": "{d9fcfdfa-a479-412c-83b7-c5640e61cd62}",
                "cursorColor": "#FFFFFF",
                "cursorShape": "bar",
                "font": 
                {
                    "face": "Consolas",
                    "size": 10
                },
                "guid": "{b453ae62-4e3d-5e58-b989-0a998ec441b8}",
                "hidden": true,
                "historySize": 9001,
                "icon": "ms-appx:///ProfileIcons/{b453ae62-4e3d-5e58-b989-0a998ec441b8}.png",
                "name": "Azure Cloud Shell",
                "opacity": 60,
                "padding": "0, 0, 0, 0",
                "snapOnInput": true,
                "source": "Windows.Terminal.Azure",
                "startingDirectory": "%USERPROFILE%",
                "useAcrylic": true
            },
            {
                "background": "#000000",
                "colorScheme": "Tango Dark",
                "commandline": "julia.exe",
                "cursorShape": "bar",
                "font": 
                {
                    "face": "Cascadia Mono"
                },
                "guid": "{722cba59-2d53-5f66-aead-a2604b5767fb}",
                "hidden": false,
                "icon": "%USERPROFILE%\\.julia\\juliaup\\julia-1.11.3+0.x64.w64.mingw32\\share\\doc\\julia\\html\\en\\assets\\julia.ico",
                "name": "Julia",
                "opacity": 80,
                "suppressApplicationTitle": true,
                "tabTitle": "Julia",
                "useAcrylic": true
            },
            {
                "background": "#012456",
                "font": 
                {
                    "face": "Consolas"
                },
                "guid": "{574e775e-4f2a-5b96-ac1e-a2962a402336}",
                "hidden": false,
                "name": "PowerShell",
                "opacity": 50,
                "source": "Windows.Terminal.PowershellCore",
                "useAcrylic": true
            },
            {
                "guid": "{2ece5bfe-50ed-5f3a-ab87-5cd4baafed2b}",
                "hidden": false,
                "name": "Git Bash",
                "source": "Git"
            }
        ]
    },
    "schemes": [],
    "tabWidthMode": "equal",
    "themes": []
}